DATA100 Group Project â€“ 2020 Fall
…
Also included are the data WorldHappinessReport2020-Score.csv from the World Happiness Report 2020, which concerns the years 2017-2019. It is computed based on the answers of people to the following question: â€œPlease imagine a ladder, with steps numbered from 0 at the bottom to 10 at the top. The top of the ladder represents the best possible life for you and the bottom of the ladder represents the worst possible life for you. On which step of the ladder would you say you personally feel you stand at this time?â€ (Statistical Appendix for Chapter 2 of World Health Report 2020) Thus, the score can be seen as giving one interpretation of happiness.

The Map

The map below shows the new cases on Oct.Â 31, 2020 obtained from Our world in data.

COVID_cases <- read_csv("COVID-2020-10-31.csv",
                        col_types = cols(
                          location = col_character(),
                          new_cases = col_double(),
                          total_cases = col_double()
                        ))
COVID_cases 

## # A tibble: 210 x 3
##    location            new_cases total_cases
##    <chr>                   <dbl>       <dbl>
##  1 Afghanistan               157       41425
##  2 Albania                   319       20634
##  3 Algeria                   319       57651
##  4 Andorra                    98        4665
##  5 Angola                    195       10269
##  6 Anguilla                    0           3
##  7 Antigua and Barbuda         3         127
##  8 Argentina               13955     1157166
##  9 Armenia                  2381       89813
## 10 Aruba                      17        4472
## # ... with 200 more rows
…
covid_cases_filtered

## # A tibble: 245 x 10
##    date       location new_cases new_deaths total_cases total_deaths
##    <date>     <chr>        <dbl>      <dbl>       <dbl>        <dbl>
##  1 2020-01-01 Canada           0          0          NA           NA
##  2 2020-01-04 Canada           0          0          NA           NA
##  3 2020-01-07 Canada           0          0          NA           NA
##  4 2020-01-10 Canada           0          0          NA           NA
##  5 2020-01-13 Canada           0          0          NA           NA
##  6 2020-01-16 Canada           0          0          NA           NA
##  7 2020-01-19 Canada           0          0          NA           NA
##  8 2020-01-22 Canada           0          0          NA           NA
##  9 2020-01-25 Canada           0          0          NA           NA
## 10 2020-01-28 Canada           1          0           2           NA
## # ... with 235 more rows, and 4 more variables: weekly_cases <dbl>,
## #   weekly_deaths <dbl>, biweekly_cases <dbl>, biweekly_deaths <dbl>
…
covid_tests_filtered <- covid_tests %>% 
  filter(between(Date,as.Date("2020-01-01"),as.Date("2020-09-01"))) %>%
  filter(Entity == c("United States - tests performed", "Canada - people tested", "Italy - tests performed"))%>%
  select(-(`Source URL`:`Notes`))
  
covid_tests_filtered

## # A tibble: 184 x 11
##    Entity Date       `ISO code` `Cumulative tot~ `Daily change i~
##    <chr>  <date>     <chr>                 <dbl>            <dbl>
##  1 Canad~ 2020-03-13 CAN                      NA               NA
##  2 Canad~ 2020-03-16 CAN                   37730            12753
##  3 Canad~ 2020-03-19 CAN                   65851            12305
##  4 Canad~ 2020-03-22 CAN                   98824             9941
##  5 Canad~ 2020-03-25 CAN                  147789            22727
##  6 Canad~ 2020-03-28 CAN                  187448            16804
##  7 Canad~ 2020-03-31 CAN                  241138            15433
##  8 Canad~ 2020-04-03 CAN                  295065            21399
##  9 Canad~ 2020-04-06 CAN                  336806            12015
## 10 Canad~ 2020-04-09 CAN                  375302            13333
## # ... with 174 more rows, and 6 more variables: `Cumulative total per
## #   thousand` <dbl>, `Daily change in cumulative total per thousand` <dbl>,
## #   `7-day smoothed daily change` <dbl>, `7-day smoothed daily change per
## #   thousand` <dbl>, `Short-term tests per case` <dbl>, `Short-term positive
## #   rate` <dbl>
…
World happiness report 2020, happiness score

happinessscore <- read_tsv("WorldHappinessReport2020-Score.csv")

## Parsed with column specification:
## cols(
##   Country = col_character(),
##   `Regional indicator` = col_character(),
##   `Ladder score` = col_double()
## )

happinessscore 

## # A tibble: 153 x 3
##    Country     `Regional indicator`  `Ladder score`
##    <chr>       <chr>                          <dbl>
##  1 Finland     Western Europe                  7.81
##  2 Denmark     Western Europe                  7.65
##  3 Switzerland Western Europe                  7.56
##  4 Iceland     Western Europe                  7.50
##  5 Norway      Western Europe                  7.49
##  6 Netherlands Western Europe                  7.45
##  7 Sweden      Western Europe                  7.35
##  8 New Zealand North America and ANZ           7.30
##  9 Austria     Western Europe                  7.29
## 10 Luxembourg  Western Europe                  7.24
## # ... with 143 more rows

Area of the regions

area <- read_tsv("AREA.csv")

## Parsed with column specification:
## cols(
##   Rank = col_double(),
##   Country = col_character(),
##   `(sq km)` = col_double()
## )

area 

## # A tibble: 258 x 3
##     Rank Country       `(sq km)`
##    <dbl> <chr>             <dbl>
##  1     1 Russia         17098242
##  2     2 Antarctica     14200000
##  3     3 Canada          9984670
##  4     4 United States   9833517
##  5     5 China           9596960
##  6     6 Brazil          8515770
##  7     7 Australia       7741220
##  8     8 India           3287263
##  9     9 Argentina       2780400
## 10    10 Kazakhstan      2724900
## # ... with 248 more rows
Population in the region

population <- read_tsv("POPULATION.csv")

## Parsed with column specification:
## cols(
##   Rank = col_double(),
##   Country = col_character(),
##   Population = col_double(),
##   `Date of Information` = col_character()
## )

population 

## # A tibble: 238 x 4
##     Rank Country       Population `Date of Information`
##    <dbl> <chr>              <dbl> <chr>                
##  1     1 China         1394015977 July 2020 est.       
##  2     2 India         1326093247 July 2020 est.       
##  3     3 United States  332639102 July 2020 est.       
##  4     4 Indonesia      267026366 July 2020 est.       
##  5     5 Pakistan       233500636 July 2020 est.       
##  6     6 Nigeria        214028302 July 2020 est.       
##  7     7 Brazil         211715973 July 2020 est.       
##  8     8 Bangladesh     162650853 July 2020 est.       
##  9     9 Russia         141722205 July 2020 est.       
## 10    10 Mexico         128649565 July 2020 est.       
## # ... with 228 more rows
…
## Warning: Expected 3 pieces. Additional pieces discarded in 230 rows [1, 2, 3, 4,
## 5, 6, 7, 8, 9, 10, 11, 12, 13, 14, 15, 16, 17, 18, 19, 20, ...].

## Warning: Expected 3 pieces. Missing pieces filled with `NA` in 1 rows [69].

## Warning: Expected 2 pieces. Missing pieces filled with `NA` in 1 rows [69].

## Warning: Expected 2 pieces. Additional pieces discarded in 1 rows [69].

lifeexpect

## # A tibble: 231 x 5
##    number female  male region              `total population`
##     <dbl>  <dbl> <dbl> <chr>                            <dbl>
##  1      1   54.4  51.4 Afghanistan                       52.8
##  2      2   81.9  76.3 Albania                           79  
##  3      3   79.1  76.1 Algeria                           77.5
##  4      4   77.5  72.3 American Samoa                    74.8
##  5      5   85.4  80.8 Andorra                           83  
##  6      6   63.4  59.3 Angola                            61.3
##  7      7   84.5  79.2 Anguilla                          81.8
##  8      8   79.6  75.1 Antigua and Barbuda               77.3
##  9      9   81.1  74.7 Argentina                         77.8
## 10     10   79.2  72.3 Armenia                           75.6
## # ... with 221 more rows
…
Labor force data in the region: the up-to-date data we use. CIA has a slightly outdated data set.

laborforce <- read_tsv("LABORFORCE.csv",
                       col_types = cols(
                         .default = col_double(),
                         `Country Name` = col_character(),
                         `Country Code` = col_character()
                       )) %>%
  gather(`1960`:`2020`, key = "years", value = "population")%>%
  filter(years >= 1990)
laborforce 

## # A tibble: 8,184 x 4
##    `Country Name`       `Country Code` years population
##    <chr>                <chr>          <chr>      <dbl>
##  1 Aruba                ABW            1990          NA
##  2 Afghanistan          AFG            1990     3049464
##  3 Angola               AGO            1990     4844454
##  4 Albania              ALB            1990     1404177
##  5 Andorra              AND            1990          NA
##  6 Arab World           ARB            1990    61300691
##  7 United Arab Emirates ARE            1990      917445
##  8 Argentina            ARG            1990    13580769
##  9 Armenia              ARM            1990     1422950
## 10 American Samoa       ASM            1990          NA
## # ... with 8,174 more rows
…
gdppp <- read_tsv("GDPPP.csv")

## Parsed with column specification:
## cols(
##   Rank = col_double(),
##   Country = col_character(),
##   `GDP - PER CAPITA (PPP)` = col_character(),
##   `Date of Information` = col_character()
## )

gdppp %>%
  arrange(desc("Date of Information"))

## # A tibble: 229 x 4
##     Rank Country       `GDP - PER CAPITA (PPP)` `Date of Information`
##    <dbl> <chr>         <chr>                    <chr>                
##  1     1 Liechtenstein $139,100                 2009 est.            
##  2     2 Qatar         $124,500                 2017 est.            
##  3     3 Monaco        $115,700                 2015 est.            
##  4     4 Macau         $111,600                 2017 est.            
##  5     5 Luxembourg    $106,300                 2017 est.            
##  6     6 Bermuda       $99,400                  2016 est.            
##  7     7 Singapore     $93,900                  2017 est.            
##  8     8 Isle of Man   $84,600                  2014 est.            
##  9     9 Brunei        $78,200                  2017 est.            
## 10    10 Ireland       $75,500                  2017 est.            
## # ... with 219 more rows
…
Use the above data for your project. You do not need to look for extra data sets for this project. You may look at other data sets for ideas and inspirations, but in the analysis and report, only use the data sets provided above.

============================ Sanity check ============================

democracyindex

## # A tibble: 167 x 12
##     Rank Country Score `Electoral proc~  `FunctioÂ­ning o~ `Political part~
##    <dbl> <chr>   <dbl>            <dbl>            <dbl>            <dbl>
##  1     1 Norway   9.87            10                9.64            10   
##  2     2 Iceland  9.58            10                9.29             8.89
##  3     3 Sweden   9.39             9.58             9.64             8.33
##  4     4 New Ze~  9.26            10                9.29             8.89
##  5     5 Finland  9.25            10                8.93             8.89
##  6     6 Ireland  9.24            10                7.86             8.33
##  7     7 Denmark  9.22            10                9.29             8.33
##  8     7 Canada   9.22             9.58             9.64             7.78
##  9     9 Austra~  9.09            10                8.93             7.78
## 10    10 Switze~  9.03             9.58             9.29             7.78
## # ... with 157 more rows, and 6 more variables: `Political culture` <dbl>,
## #   `Civil liberties` <dbl>, `Regime type` <chr>, Region <chr>, `Change from
## #   last year: Score` <chr>, `Change from last year: rank` <chr>

left_join(democracyindex, happinessscore, by = "Country")

## # A tibble: 167 x 14
##     Rank Country Score `Electoral proc~  `FunctioÂ­ning o~ `Political part~
##    <dbl> <chr>   <dbl>            <dbl>            <dbl>            <dbl>
##  1     1 Norway   9.87            10                9.64            10   
##  2     2 Iceland  9.58            10                9.29             8.89
##  3     3 Sweden   9.39             9.58             9.64             8.33
##  4     4 New Ze~  9.26            10                9.29             8.89
##  5     5 Finland  9.25            10                8.93             8.89
##  6     6 Ireland  9.24            10                7.86             8.33
##  7     7 Denmark  9.22            10                9.29             8.33
##  8     7 Canada   9.22             9.58             9.64             7.78
##  9     9 Austra~  9.09            10                8.93             7.78
## 10    10 Switze~  9.03             9.58             9.29             7.78
## # ... with 157 more rows, and 8 more variables: `Political culture` <dbl>,
## #   `Civil liberties` <dbl>, `Regime type` <chr>, Region <chr>, `Change from
## #   last year: Score` <chr>, `Change from last year: rank` <chr>, `Regional
## #   indicator` <chr>, `Ladder score` <dbl>
